{
  "$schema": "https://go.kicad.org/pcm/schemas/v1",
  "name": "KiBuzzard",
  "description": "Custom font label generator",
  "description_full": "A label generator that renders svgs from truetype fonts, and creates silkscreen footprints for your PCB. Based of a similar plugin for Cadsoft Eagle called Buzzard",
  "identifier": "com.github.gregdavill.KiBuzzard",
  "type": "plugin",
  "author": {
    "name": "Greg Davill",
    "contact": {
      "github": "https://github.com/gregdavill",
      "web": "https://gregdavill.com",
      "twitter": "https://twitter.com/gregdavill"
    }
  },
  "maintainer": {
    "name": "Greg Davill",
    "contact": {
      "github": "https://github.com/gregdavill",
      "web": "https://gregdavill.com",
      "twitter": "https://twitter.com/gregdavill"
    }
  },
  "license": "MIT",
  "resources": {
    "homepage": "https://github.com/gregdavill/KiBuzzard"
  },
  "versions": [
    {
      "version": "1.2.0",
      "status": "stable",
      "kicad_version": "6.0",
      "install_size": 22510171,
      "download_size": 6900468,
      "download_sha256": "dbd0906ece41961ef7b28493ff1a9c1163dfbed028e8ccd6ce7a17a73a3154d8",
      "download_url": "https://github.com/gregdavill/KiBuzzard/releases/download/1.2.0/KiBuzzard-1.2.0-pcm.zip"
    },
    {
      "version": "1.3.0",
      "status": "stable",
      "kicad_version": "6.0",
      "install_size": 25632774,
      "download_size": 7774425,
      "download_sha256": "a077d5bd4622aa6fa96ed9c28acd74635a8865c65b220de42ca844b0994ca5b5",
      "download_url": "https://github.com/gregdavill/KiBuzzard/releases/download/1.3.0/KiBuzzard-1.3.0-pcm.zip"
    }
  ]
}